<svg width="41" height="48" viewBox="0 0 41 48" fill="none" xmlns="http://www.w3.org/2000/svg">
<path d="M38.8413 20.2163L6.62608 1.17092C4.00859 -0.375769 0 1.12516 0 4.95072V43.0323C0 46.4644 3.72488 48.5327 6.62608 46.8121L38.8413 27.7759C41.715 26.0828 41.7241 21.9094 38.8413 20.2163ZM37.3586 25.2591L5.14345 44.2953C4.17333 44.8536 2.92865 44.1855 2.92865 43.0323V4.95072C2.92865 3.45893 4.42959 3.26674 5.13429 3.68774L37.3495 22.7331C38.3104 23.3006 38.3104 24.6917 37.3586 25.2591Z" fill="white"/>
</svg>
